{
  "description": "Coders' typeface, built from code",
  "version": "15.3.0",
  "license": "OFL-1.1",
  "homepage": "https://typeof.net/Iosevka/",
  "url": "https://github.com/be5invis/Iosevka/releases/download/v15.3.0/super-ttc-iosevka-aile-15.3.0.zip",
  "hash": "de6cb18a08f1f7eaca95f22cfdf6687a42446dcdfe58a7ed64ce6008dbd96c47",
  "checkver": {
    "github": "https://github.com/be5invis/Iosevka"
  },
  "autoupdate": {
    "url": "https://github.com/be5invis/Iosevka/releases/download/v$version/super-ttc-iosevka-aile-$version.zip"
  },
  "installer": {
    "script": [
      "Get-ChildItem $dir -filter '*.ttc' | ForEach-Object {",
      "  New-ItemProperty -Path 'HKCU:\\SOFTWARE\\Microsoft\\Windows NT\\CurrentVersion\\Fonts' -Name $_.Name -Value $_.FullName -Force | Out-Null",
      "}"
    ]
  },
  "uninstaller": {
    "script": [
      "Get-ChildItem $dir -filter '*.ttc' | ForEach-Object {",
      "  Remove-ItemProperty -Path 'HKCU:\\SOFTWARE\\Microsoft\\Windows NT\\CurrentVersion\\Fonts' -Name $_.Name -Force",
      "}"
    ]
  }
}
